<?xml version="1.0" encoding="UTF-8" standalone="no"?>
<!-- Created with Inkscape (http://www.inkscape.org/) -->

<svg
   xmlns:dc="http://purl.org/dc/elements/1.1/"
   xmlns:cc="http://creativecommons.org/ns#"
   xmlns:rdf="http://www.w3.org/1999/02/22-rdf-syntax-ns#"
   xmlns:svg="http://www.w3.org/2000/svg"
   xmlns="http://www.w3.org/2000/svg"
   xmlns:sodipodi="http://sodipodi.sourceforge.net/DTD/sodipodi-0.dtd"
   xmlns:inkscape="http://www.inkscape.org/namespaces/inkscape"
   width="44.958mm"
   height="55.230888mm"
   viewBox="0 0 159.3 195.7"
   id="svg4193"
   version="1.1"
   inkscape:version="0.91 r13725"
   sodipodi:docname="pdf.svg">
  <defs
     id="defs4195" />
  <sodipodi:namedview
     id="base"
     pagecolor="#ffffff"
     bordercolor="#666666"
     borderopacity="1.0"
     inkscape:pageopacity="0.0"
     inkscape:pageshadow="2"
     inkscape:zoom="0.35"
     inkscape:cx="-431.06429"
     inkscape:cy="-159.29285"
     inkscape:document-units="px"
     inkscape:current-layer="layer1"
     showgrid="false"
     fit-margin-top="0"
     fit-margin-left="0"
     fit-margin-right="0"
     fit-margin-bottom="0"
     inkscape:window-width="1366"
     inkscape:window-height="744"
     inkscape:window-x="0"
     inkscape:window-y="24"
     inkscape:window-maximized="1" />
  <metadata
     id="metadata4198">
    <rdf:RDF>
      <cc:Work
         rdf:about="">
        <dc:format>image/svg+xml</dc:format>
        <dc:type
           rdf:resource="http://purl.org/dc/dcmitype/StillImage" />
        <dc:title></dc:title>
      </cc:Work>
    </rdf:RDF>
  </metadata>
  <g
     inkscape:label="Layer 1"
     inkscape:groupmode="layer"
     id="layer1"
     transform="translate(-308.92143,-177.36935)">
    <g
       id="g5"
       transform="translate(288.12143,175.86935)">
      <g
         id="g7">
        <path
           class="st0"
           d="M 180.1,76.3 180.1,46 135.6,1.5 32.8,1.5 c -6.6,0 -12,5.4 -12,12 l 0,62.7 159.3,0 z"
           id="path9"
           inkscape:connector-curvature="0"
           style="fill:#f27267" />
      </g>
      <g
         id="g11">
        <path
           class="st1"
           d="m 20.8,76.3 0,108.9 c 0,6.6 5.4,12 12,12 l 135.2,0 c 6.6,0 12,-5.4 12,-12 l 0,-108.9 -159.2,0 z"
           id="path13"
           inkscape:connector-curvature="0"
           style="fill:#e6e7e8" />
      </g>
      <g
         class="st2"
         id="g15"
         style="opacity:0.15">
        <path
           class="st3"
           d="m 135.7,1.5 -2.3,42.3 c 0,4.3 3.5,7.9 7.9,7.9 l 38.8,-5.7 0,-0.1 -44.4,-44.4 z"
           id="path17"
           inkscape:connector-curvature="0"
           style="fill:#231f20" />
      </g>
      <g
         id="g19">
        <path
           class="st4"
           d="M 135.7,1.5 135.6,38 c 0,4.3 3.5,7.9 7.9,7.9 l 36.5,0 0,-0.1 -44.3,-44.3 z"
           id="path21"
           inkscape:connector-curvature="0"
           style="fill:#f58f87" />
      </g>
      <g
         id="g23">
        <path
           class="st5"
           d="m 46.2,41.8 0,7.5 -3.3,0 0,-19.7 7.7,0 c 2.2,0 3.9,0.6 5.1,1.7 1.2,1.1 1.9,2.6 1.9,4.4 0,1.9 -0.6,3.3 -1.9,4.5 -1.2,1.1 -2.9,1.7 -5.1,1.7 l -4.4,0 z m 0,-2.6 4.4,0 c 1.2,0 2.1,-0.3 2.8,-1 0.6,-0.7 0.9,-1.5 0.9,-2.5 0,-1 -0.3,-1.8 -0.9,-2.5 -0.6,-0.7 -1.5,-1 -2.8,-1 l -4.4,0 0,7 z"
           id="path25"
           inkscape:connector-curvature="0"
           style="fill:#ffffff" />
        <path
           class="st5"
           d="m 60.6,49.3 0,-19.7 6.4,0 c 2.5,0 4.5,0.8 6.1,2.3 1.6,1.6 2.4,3.6 2.4,6 l 0,3 c 0,2.5 -0.8,4.5 -2.4,6 -1.6,1.6 -3.6,2.3 -6.1,2.3 l -6.4,0 z m 3.3,-17.1 0,14.5 3,0 c 1.6,0 2.9,-0.5 3.9,-1.6 0.9,-1.1 1.4,-2.4 1.4,-4.1 l 0,-3 c 0,-1.7 -0.5,-3 -1.4,-4.1 -0.9,-1.1 -2.2,-1.6 -3.9,-1.6 l -3,0 z"
           id="path27"
           inkscape:connector-curvature="0"
           style="fill:#ffffff" />
        <path
           class="st5"
           d="m 90.5,40.9 -8.6,0 0,8.4 -3.3,0 0,-19.7 13.3,0 0,2.6 -10,0 0,6 8.6,0 0,2.7 z"
           id="path29"
           inkscape:connector-curvature="0"
           style="fill:#ffffff" />
      </g>
      <g
         id="g31">
        <rect
           x="20.799999"
           y="75.800003"
           class="st5"
           width="159.2"
           height="1"
           id="rect33"
           style="fill:#ffffff" />
      </g>
      <g
         id="g35">
        <g
           id="g37">
          <rect
             x="92.199997"
             y="107.7"
             class="st6"
             width="50.200001"
             height="5"
             id="rect39"
             style="fill:#b5bfc8" />
        </g>
        <g
           id="g41">
          <rect
             x="92.199997"
             y="124.7"
             class="st6"
             width="50.200001"
             height="5"
             id="rect43"
             style="fill:#b5bfc8" />
        </g>
        <g
           id="g45">
          <rect
             x="58.599998"
             y="141.7"
             class="st6"
             width="83.800003"
             height="5"
             id="rect47"
             style="fill:#b5bfc8" />
        </g>
        <g
           id="g49">
          <rect
             x="58.599998"
             y="158.7"
             class="st6"
             width="83.800003"
             height="5"
             id="rect51"
             style="fill:#b5bfc8" />
        </g>
      </g>
      <g
         id="g53">
        <path
           class="st6"
           d="m 80.4,129.7 -22.3,0 0,-22 22.3,0 0,22 z m -17.3,-5 12.3,0 0,-12 -12.3,0 0,12 z"
           id="path55"
           inkscape:connector-curvature="0"
           style="fill:#b5bfc8" />
      </g>
    </g>
  </g>
</svg>
