<?xml version="1.0" encoding="iso-8859-1"?>
<!-- Generator: Adobe Illustrator 19.0.0, SVG Export Plug-In . SVG Version: 6.00 Build 0)  -->
<svg version="1.1" id="Layer_1" xmlns="http://www.w3.org/2000/svg" xmlns:xlink="http://www.w3.org/1999/xlink" x="0px" y="0px"
	 viewBox="0 0 512 512" style="enable-background:new 0 0 512 512;" xml:space="preserve">
<circle style="fill:#2D4452;" cx="256" cy="256" r="256"/>
<path style="fill:#F5F5F5;" d="M156,200v291.724C186.724,504.772,220.516,512,256,512s69.276-7.228,100-20.276V200H156z"/>
<rect x="156" y="200" style="fill:#CCCCCC;" width="200" height="4"/>
<path style="fill:#F5F5F5;" d="M100,152c-4.4,0-8-3.6-8-8v-32c0-4.4,3.6-8,8-8h312c4.4,0,8,3.6,8,8v32c0,4.4-3.6,8-8,8H100z"/>
<path style="fill:#CCCCCC;" d="M340,200v297.828c5.408-1.88,10.76-3.88,16-6.104V200H340z"/>
<path style="fill:#FFFFFF;" d="M100,144v-32c0-4.4,3.6-8,8-8h-8c-4.4,0-8,3.6-8,8v32c0,4.4,3.6,8,8,8h8C103.6,152,100,148.4,100,144
	z"/>
<g>
	<path style="fill:#E6E6E6;" d="M412,104h-16c4.4,0,8,3.6,8,8v32c0,4.4-3.6,8-8,8h16c4.4,0,8-3.6,8-8v-32
		C420,107.6,416.4,104,412,104z"/>
	<path style="fill:#E6E6E6;" d="M396,152v40c0,4.4-3.6,8-8,8H124c-4.4,0-8-3.6-8-8v-40H396z"/>
</g>
<path style="fill:#F5F5F5;" d="M124,192v-40h-8v40c0,4.4,3.6,8,8,8h8C127.6,200,124,196.4,124,192z"/>
<path style="fill:#FFFFFF;" d="M156,204v287.724c5.24,2.224,10.592,4.224,16,6.104V204H156z"/>
<g>
	<path style="fill:#CCCCCC;" d="M380,152v40c0,4.4-3.6,8-8,8h16c4.4,0,8-3.6,8-8v-40H380z"/>
	<rect x="116" y="152" style="fill:#CCCCCC;" width="280" height="4"/>
	<path style="fill:#CCCCCC;" d="M208,240v252c0,6.628-5.372,12-12,12s-12-5.372-12-12V240c0-6.628,5.372-12,12-12
		S208,233.372,208,240z M320,228c-6.628,0-12,5.372-12,12v252c0,6.628,5.372,12,12,12s12-5.372,12-12V240
		C332,233.372,326.628,228,320,228z M256,228c-6.628,0-12,5.372-12,12v252c0,6.628,5.372,12,12,12c6.628,0,12-5.372,12-12V240
		C268,233.372,262.628,228,256,228z"/>
</g>
<g>
	<path style="fill:#FFFFFF;" d="M196,228c-0.684,0-1.344,0.092-2,0.2c5.668,0.96,10,5.86,10,11.8v252c0,5.936-4.332,10.84-10,11.8
		c0.656,0.104,1.316,0.2,2,0.2c6.628,0,12-5.372,12-12V240C208,233.372,202.628,228,196,228z"/>
	<path style="fill:#FFFFFF;" d="M256,228c-0.684,0-1.344,0.092-2,0.2c5.668,0.96,10,5.86,10,11.8v252c0,5.936-4.332,10.84-10,11.8
		c0.656,0.104,1.316,0.2,2,0.2c6.628,0,12-5.372,12-12V240C268,233.372,262.628,228,256,228z"/>
	<path style="fill:#FFFFFF;" d="M320,228c-0.684,0-1.344,0.092-2,0.2c5.668,0.96,10,5.86,10,11.8v252c0,5.936-4.332,10.84-10,11.8
		c0.656,0.104,1.316,0.2,2,0.2c6.628,0,12-5.372,12-12V240C332,233.372,326.628,228,320,228z"/>
</g>
<g>
	<path style="fill:#B3B3B3;" d="M192,492V240c0-5.216,3.348-9.612,8-11.264c-1.256-0.448-2.588-0.736-4-0.736
		c-6.628,0-12,5.372-12,12v252c0,6.628,5.372,12,12,12c1.412,0,2.744-0.288,4-0.736C195.348,501.608,192,497.22,192,492z"/>
	<path style="fill:#B3B3B3;" d="M252,492V240c0-5.216,3.348-9.612,8-11.264c-1.256-0.448-2.588-0.736-4-0.736
		c-6.628,0-12,5.372-12,12v252c0,6.628,5.372,12,12,12c1.412,0,2.744-0.288,4-0.736C255.348,501.608,252,497.22,252,492z"/>
	<path style="fill:#B3B3B3;" d="M316,492V240c0-5.216,3.348-9.612,8-11.264c-1.256-0.448-2.584-0.736-4-0.736
		c-6.628,0-12,5.372-12,12v252c0,6.56,5.268,11.872,11.804,11.98c1.196-0.308,2.364-0.676,3.556-1
		C319.052,501.16,316,496.972,316,492z"/>
</g>
</svg>
