<?xml version="1.0" encoding="iso-8859-1"?>
<!-- Generator: Adobe Illustrator 19.0.0, SVG Export Plug-In . SVG Version: 6.00 Build 0)  -->
<svg version="1.1" id="Layer_1" xmlns="http://www.w3.org/2000/svg" xmlns:xlink="http://www.w3.org/1999/xlink" x="0px" y="0px"
	 viewBox="0 0 512.002 512.002" style="enable-background:new 0 0 512.002 512.002;" xml:space="preserve">
<circle style="fill:#366695;" cx="256" cy="256.001" r="256"/>
<path style="fill:#273B7A;" d="M129.581,407.705l103.241,103.241c7.637,0.686,15.363,1.055,23.18,1.055
	c141.384,0,256-114.616,256-256c0-18.134-1.898-35.823-5.484-52.891l-98.814-98.813L129.581,407.705z"/>
<polygon style="fill:#FEE187;" points="129.581,154.864 104.296,104.297 129.581,104.297 180.148,180.149 "/>
<g>
	<polygon style="fill:#FFC61B;" points="382.419,154.864 407.704,104.297 382.419,104.297 331.852,180.149 	"/>
	<rect x="129.586" y="154.859" style="fill:#FFC61B;" width="252.845" height="252.845"/>
</g>
<rect x="256" y="154.859" style="fill:#D48B07;" width="126.414" height="252.845"/>
<g>
	<polygon style="fill:#273B7A;" points="302.066,331.854 302.064,269.956 322.498,286.619 322.498,276.414 297.467,256.001 
		272.437,276.414 272.437,286.621 292.871,269.956 292.873,331.853 	"/>
	<polygon style="fill:#273B7A;" points="219.131,331.854 219.129,269.956 239.563,286.619 239.563,276.414 214.531,256.001 
		189.502,276.414 189.502,286.621 209.936,269.956 209.936,331.853 	"/>
	<rect x="180.148" y="344.11" style="fill:#273B7A;" width="151.704" height="10.726"/>
</g>
<rect x="256" y="344.11" style="fill:#121149;" width="75.852" height="10.726"/>
</svg>
